%YAML 1.1
%TAG !u! tag:unity3d.com,2011:
--- !u!114 &11400000
MonoBehaviour:
  m_ObjectHideFlags: 0
  m_CorrespondingSourceObject: {fileID: 0}
  m_PrefabInstance: {fileID: 0}
  m_PrefabAsset: {fileID: 0}
  m_GameObject: {fileID: 0}
  m_Enabled: 1
  m_EditorHideFlags: 0
  m_Script: {fileID: 11500000, guid: d105c130a4b7e4582be5b312ca55f7c7, type: 3}
  m_Name: Bow Red Projectile
  m_EditorClassIdentifier: 
  equippedPrefab: {fileID: 6771623200577107583, guid: bd282598c13004db1989a9b3062b08e3,
    type: 3}
  animatorOverride: {fileID: 22100000, guid: f7535bc3de57a4b3f99d07c148ce4396, type: 2}
  weaponDamage: 10
  percentageBonus: 0
  weaponRange: 10
  isRightHanded: 0
  projectile: {fileID: 5252450920156736858, guid: 96f6097a13eec4f79a0b7b343018ff2c,
    type: 3}
