%YAML 1.1
%TAG !u! tag:unity3d.com,2011:
--- !u!114 &11400000
MonoBehaviour:
  m_ObjectHideFlags: 0
  m_CorrespondingSourceObject: {fileID: 0}
  m_PrefabInstance: {fileID: 0}
  m_PrefabAsset: {fileID: 0}
  m_GameObject: {fileID: 0}
  m_Enabled: 1
  m_EditorHideFlags: 0
  m_Script: {fileID: 11500000, guid: d105c130a4b7e4582be5b312ca55f7c7, type: 3}
  m_Name: Fireball
  m_EditorClassIdentifier: 
  equippedPrefab: {fileID: 0}
  animatorOverride: {fileID: 22100000, guid: f86d29a6d7faf4df2bf442099fe251c3, type: 2}
  weaponDamage: 10
  weaponRange: 12
  isRightHanded: 1
  projectile: {fileID: 3224631613968105568, guid: 9a4d8f750f911437f8934e328b517af8,
    type: 3}
