%YAML 1.1
%TAG !u! tag:unity3d.com,2011:
--- !u!1001 &2054475239283361054
PrefabInstance:
  m_ObjectHideFlags: 0
  serializedVersion: 2
  m_Modification:
    m_TransformParent: {fileID: 6400911296732956358}
    m_Modifications:
    - target: {fileID: 181534, guid: 13af847dfa6dbe844ba4b7c902f98f67, type: 3}
      propertyPath: m_Name
      value: SM_Wep_Sword_01
      objectReference: {fileID: 0}
    - target: {fileID: 489998, guid: 13af847dfa6dbe844ba4b7c902f98f67, type: 3}
      propertyPath: m_LocalPosition.x
      value: 0
      objectReference: {fileID: 0}
    - target: {fileID: 489998, guid: 13af847dfa6dbe844ba4b7c902f98f67, type: 3}
      propertyPath: m_LocalPosition.y
      value: 0
      objectReference: {fileID: 0}
    - target: {fileID: 489998, guid: 13af847dfa6dbe844ba4b7c902f98f67, type: 3}
      propertyPath: m_LocalPosition.z
      value: 0
      objectReference: {fileID: 0}
    - target: {fileID: 489998, guid: 13af847dfa6dbe844ba4b7c902f98f67, type: 3}
      propertyPath: m_LocalRotation.x
      value: 0.7071068
      objectReference: {fileID: 0}
    - target: {fileID: 489998, guid: 13af847dfa6dbe844ba4b7c902f98f67, type: 3}
      propertyPath: m_LocalRotation.y
      value: 0
      objectReference: {fileID: 0}
    - target: {fileID: 489998, guid: 13af847dfa6dbe844ba4b7c902f98f67, type: 3}
      propertyPath: m_LocalRotation.z
      value: 0
      objectReference: {fileID: 0}
    - target: {fileID: 489998, guid: 13af847dfa6dbe844ba4b7c902f98f67, type: 3}
      propertyPath: m_LocalRotation.w
      value: 0.7071068
      objectReference: {fileID: 0}
    - target: {fileID: 489998, guid: 13af847dfa6dbe844ba4b7c902f98f67, type: 3}
      propertyPath: m_RootOrder
      value: 0
      objectReference: {fileID: 0}
    - target: {fileID: 489998, guid: 13af847dfa6dbe844ba4b7c902f98f67, type: 3}
      propertyPath: m_LocalEulerAnglesHint.x
      value: 90
      objectReference: {fileID: 0}
    - target: {fileID: 489998, guid: 13af847dfa6dbe844ba4b7c902f98f67, type: 3}
      propertyPath: m_LocalEulerAnglesHint.y
      value: 0
      objectReference: {fileID: 0}
    - target: {fileID: 489998, guid: 13af847dfa6dbe844ba4b7c902f98f67, type: 3}
      propertyPath: m_LocalEulerAnglesHint.z
      value: 0
      objectReference: {fileID: 0}
    m_RemovedComponents: []
  m_SourcePrefab: {fileID: 100100000, guid: 13af847dfa6dbe844ba4b7c902f98f67, type: 3}
--- !u!1001 &6652804354647084054
PrefabInstance:
  m_ObjectHideFlags: 0
  serializedVersion: 2
  m_Modification:
    m_TransformParent: {fileID: 0}
    m_Modifications:
    - target: {fileID: 6695065005751534759, guid: d0a273b29e21f41b089f3801dc607de9,
        type: 3}
      propertyPath: m_Name
      value: Sword Pickup
      objectReference: {fileID: 0}
    - target: {fileID: 326256602714000080, guid: d0a273b29e21f41b089f3801dc607de9,
        type: 3}
      propertyPath: m_LocalPosition.x
      value: 0
      objectReference: {fileID: 0}
    - target: {fileID: 326256602714000080, guid: d0a273b29e21f41b089f3801dc607de9,
        type: 3}
      propertyPath: m_LocalPosition.y
      value: 0
      objectReference: {fileID: 0}
    - target: {fileID: 326256602714000080, guid: d0a273b29e21f41b089f3801dc607de9,
        type: 3}
      propertyPath: m_LocalPosition.z
      value: 0
      objectReference: {fileID: 0}
    - target: {fileID: 326256602714000080, guid: d0a273b29e21f41b089f3801dc607de9,
        type: 3}
      propertyPath: m_LocalRotation.x
      value: 0
      objectReference: {fileID: 0}
    - target: {fileID: 326256602714000080, guid: d0a273b29e21f41b089f3801dc607de9,
        type: 3}
      propertyPath: m_LocalRotation.y
      value: 0
      objectReference: {fileID: 0}
    - target: {fileID: 326256602714000080, guid: d0a273b29e21f41b089f3801dc607de9,
        type: 3}
      propertyPath: m_LocalRotation.z
      value: 0
      objectReference: {fileID: 0}
    - target: {fileID: 326256602714000080, guid: d0a273b29e21f41b089f3801dc607de9,
        type: 3}
      propertyPath: m_LocalRotation.w
      value: 1
      objectReference: {fileID: 0}
    - target: {fileID: 326256602714000080, guid: d0a273b29e21f41b089f3801dc607de9,
        type: 3}
      propertyPath: m_RootOrder
      value: 0
      objectReference: {fileID: 0}
    - target: {fileID: 326256602714000080, guid: d0a273b29e21f41b089f3801dc607de9,
        type: 3}
      propertyPath: m_LocalEulerAnglesHint.x
      value: 0
      objectReference: {fileID: 0}
    - target: {fileID: 326256602714000080, guid: d0a273b29e21f41b089f3801dc607de9,
        type: 3}
      propertyPath: m_LocalEulerAnglesHint.y
      value: 0
      objectReference: {fileID: 0}
    - target: {fileID: 326256602714000080, guid: d0a273b29e21f41b089f3801dc607de9,
        type: 3}
      propertyPath: m_LocalEulerAnglesHint.z
      value: 0
      objectReference: {fileID: 0}
    - target: {fileID: 6291414609277591880, guid: d0a273b29e21f41b089f3801dc607de9,
        type: 3}
      propertyPath: thisWeapon
      value: 
      objectReference: {fileID: 11400000, guid: 0180c8cae324f48e5a858efe0d399eec,
        type: 2}
    m_RemovedComponents: []
  m_SourcePrefab: {fileID: 100100000, guid: d0a273b29e21f41b089f3801dc607de9, type: 3}
--- !u!4 &6400911296732956358 stripped
Transform:
  m_CorrespondingSourceObject: {fileID: 326256602714000080, guid: d0a273b29e21f41b089f3801dc607de9,
    type: 3}
  m_PrefabInstance: {fileID: 6652804354647084054}
  m_PrefabAsset: {fileID: 0}
