%YAML 1.1
%TAG !u! tag:unity3d.com,2011:
--- !u!1 &8576968813375233640
GameObject:
  m_ObjectHideFlags: 0
  m_CorrespondingSourceObject: {fileID: 0}
  m_PrefabInstance: {fileID: 0}
  m_PrefabAsset: {fileID: 0}
  serializedVersion: 6
  m_Component:
  - component: {fileID: 2287978776641732532}
  - component: {fileID: 6771623200577107583}
  m_Layer: 0
  m_Name: Equipped Bow
  m_TagString: Untagged
  m_Icon: {fileID: 0}
  m_NavMeshLayer: 0
  m_StaticEditorFlags: 0
  m_IsActive: 1
--- !u!4 &2287978776641732532
Transform:
  m_ObjectHideFlags: 0
  m_CorrespondingSourceObject: {fileID: 0}
  m_PrefabInstance: {fileID: 0}
  m_PrefabAsset: {fileID: 0}
  m_GameObject: {fileID: 8576968813375233640}
  m_LocalRotation: {x: 0, y: 0, z: 0, w: 1}
  m_LocalPosition: {x: 0, y: 0, z: 0}
  m_LocalScale: {x: 1, y: 1, z: 1}
  m_Children:
  - {fileID: 8632045128993710125}
  m_Father: {fileID: 0}
  m_RootOrder: 0
  m_LocalEulerAnglesHint: {x: 0, y: 0, z: 0}
--- !u!114 &6771623200577107583
MonoBehaviour:
  m_ObjectHideFlags: 0
  m_CorrespondingSourceObject: {fileID: 0}
  m_PrefabInstance: {fileID: 0}
  m_PrefabAsset: {fileID: 0}
  m_GameObject: {fileID: 8576968813375233640}
  m_Enabled: 1
  m_EditorHideFlags: 0
  m_Script: {fileID: 11500000, guid: 75eebcfddf9dc445d901ad59586e75b8, type: 3}
  m_Name: 
  m_EditorClassIdentifier: 
--- !u!1001 &8630052278578550311
PrefabInstance:
  m_ObjectHideFlags: 0
  serializedVersion: 2
  m_Modification:
    m_TransformParent: {fileID: 2287978776641732532}
    m_Modifications:
    - target: {fileID: 1563655986059756, guid: 7f105c0c272e6c146b4b41cdc53ea356, type: 3}
      propertyPath: m_Name
      value: Simple Bow
      objectReference: {fileID: 0}
    - target: {fileID: 4281075886339594, guid: 7f105c0c272e6c146b4b41cdc53ea356, type: 3}
      propertyPath: m_LocalPosition.x
      value: 0.307
      objectReference: {fileID: 0}
    - target: {fileID: 4281075886339594, guid: 7f105c0c272e6c146b4b41cdc53ea356, type: 3}
      propertyPath: m_LocalPosition.y
      value: -0.049
      objectReference: {fileID: 0}
    - target: {fileID: 4281075886339594, guid: 7f105c0c272e6c146b4b41cdc53ea356, type: 3}
      propertyPath: m_LocalPosition.z
      value: 0.805
      objectReference: {fileID: 0}
    - target: {fileID: 4281075886339594, guid: 7f105c0c272e6c146b4b41cdc53ea356, type: 3}
      propertyPath: m_LocalRotation.x
      value: 0
      objectReference: {fileID: 0}
    - target: {fileID: 4281075886339594, guid: 7f105c0c272e6c146b4b41cdc53ea356, type: 3}
      propertyPath: m_LocalRotation.y
      value: -0.7071068
      objectReference: {fileID: 0}
    - target: {fileID: 4281075886339594, guid: 7f105c0c272e6c146b4b41cdc53ea356, type: 3}
      propertyPath: m_LocalRotation.z
      value: 0.7071068
      objectReference: {fileID: 0}
    - target: {fileID: 4281075886339594, guid: 7f105c0c272e6c146b4b41cdc53ea356, type: 3}
      propertyPath: m_LocalRotation.w
      value: 0
      objectReference: {fileID: 0}
    - target: {fileID: 4281075886339594, guid: 7f105c0c272e6c146b4b41cdc53ea356, type: 3}
      propertyPath: m_RootOrder
      value: 0
      objectReference: {fileID: 0}
    - target: {fileID: 4281075886339594, guid: 7f105c0c272e6c146b4b41cdc53ea356, type: 3}
      propertyPath: m_LocalEulerAnglesHint.x
      value: 90
      objectReference: {fileID: 0}
    - target: {fileID: 4281075886339594, guid: 7f105c0c272e6c146b4b41cdc53ea356, type: 3}
      propertyPath: m_LocalEulerAnglesHint.y
      value: -180
      objectReference: {fileID: 0}
    - target: {fileID: 4281075886339594, guid: 7f105c0c272e6c146b4b41cdc53ea356, type: 3}
      propertyPath: m_LocalEulerAnglesHint.z
      value: 0
      objectReference: {fileID: 0}
    m_RemovedComponents: []
  m_SourcePrefab: {fileID: 100100000, guid: 7f105c0c272e6c146b4b41cdc53ea356, type: 3}
--- !u!4 &8632045128993710125 stripped
Transform:
  m_CorrespondingSourceObject: {fileID: 4281075886339594, guid: 7f105c0c272e6c146b4b41cdc53ea356,
    type: 3}
  m_PrefabInstance: {fileID: 8630052278578550311}
  m_PrefabAsset: {fileID: 0}
